[
    {
        "text": "NOWHERE!",
        "centroid": [
            251.5,
            99.5
        ]
    },
    {
        "text": "WHERE DOES THAT LEAVE THE NOWHERE! REST OF US?",
        "centroid": [
            224.25,
            391.5
        ]
    }
]